{
	"info": {
		"_postman_id": "08baeb0a-ca9d-49dd-9e24-3c404d78db8f",
		"name": "fee",
		"schema": "https://schema.getpostman.com/json/collection/v2.1.0/collection.json"
	},
	"item": [
		{
			"name": "Show all fee",
			"request": {
				"method": "GET",
				"header": [],
				"url": {
					"raw": "http://127.0.0.1:8000/api/dev/all/fee",
					"protocol": "http",
					"host": [
						"127",
						"0",
						"0",
						"1"
					],
					"port": "8000",
					"path": [
						"api",
						"dev",
						"all",
						"fee"
					]
				}
			},
			"response": []
		},
		{
			"name": "Show fee",
			"protocolProfileBehavior": {
				"disableBodyPruning": true
			},
			"request": {
				"method": "GET",
				"header": [],
				"body": {
					"mode": "raw",
					"raw": "",
					"options": {
						"raw": {
							"language": "json"
						}
					}
				},
				"url": {
					"raw": "http://127.0.0.1:8000/api/dev/all/1/fee",
					"protocol": "http",
					"host": [
						"127",
						"0",
						"0",
						"1"
					],
					"port": "8000",
					"path": [
						"api",
						"dev",
						"all",
						"1",
						"fee"
					]
				}
			},
			"response": []
		},
		{
			"name": "Add - Post fee",
			"request": {
				"method": "POST",
				"header": [],
				"body": {
					"mode": "raw",
					"raw": "{\r\n    \"name\" : \"nisacobaqw\",\r\n    \"description\" : \"pembahasan pembahasan pembahasan pembahasan\"\r\n}",
					"options": {
						"raw": {
							"language": "json"
						}
					}
				},
				"url": {
					"raw": "http://127.0.0.1:8000/api/dev/all/fee",
					"protocol": "http",
					"host": [
						"127",
						"0",
						"0",
						"1"
					],
					"port": "8000",
					"path": [
						"api",
						"dev",
						"all",
						"fee"
					]
				}
			},
			"response": []
		},
		{
			"name": "Delete - fee",
			"request": {
				"method": "DELETE",
				"header": [],
				"url": {
					"raw": "http://127.0.0.1:8000/api/dev/all/fee/8",
					"protocol": "http",
					"host": [
						"127",
						"0",
						"0",
						"1"
					],
					"port": "8000",
					"path": [
						"api",
						"dev",
						"all",
						"fee",
						"8"
					]
				}
			},
			"response": []
		},
		{
			"name": "Edit - Fee",
			"request": {
				"method": "PUT",
				"header": [],
				"body": {
					"mode": "raw",
					"raw": "{\r\n    \"name\" : \"edit\",\r\n    \"description\" : \"edit\"\r\n}",
					"options": {
						"raw": {
							"language": "json"
						}
					}
				},
				"url": {
					"raw": "http://127.0.0.1:8000/api/dev/all/fee/edit/1",
					"protocol": "http",
					"host": [
						"127",
						"0",
						"0",
						"1"
					],
					"port": "8000",
					"path": [
						"api",
						"dev",
						"all",
						"fee",
						"edit",
						"1"
					]
				}
			},
			"response": []
		}
	]
}